<?xml version="1.0" encoding="UTF-8" standalone="no"?>
<!-- Created with Inkscape (http://www.inkscape.org/) -->

<svg
   xmlns:dc="http://purl.org/dc/elements/1.1/"
   xmlns:cc="http://creativecommons.org/ns#"
   xmlns:rdf="http://www.w3.org/1999/02/22-rdf-syntax-ns#"
   xmlns:svg="http://www.w3.org/2000/svg"
   xmlns="http://www.w3.org/2000/svg"
   xmlns:sodipodi="http://sodipodi.sourceforge.net/DTD/sodipodi-0.dtd"
   xmlns:inkscape="http://www.inkscape.org/namespaces/inkscape"
   width="210mm"
   height="297mm"
   viewBox="0 0 744.09448819 1052.3622047"
   id="svg2"
   version="1.1"
   inkscape:version="0.91 r13725"
   sodipodi:docname="logo_2.svg">
  <defs
     id="defs4" />
  <sodipodi:namedview
     id="base"
     pagecolor="#ffffff"
     bordercolor="#666666"
     borderopacity="1.0"
     inkscape:pageopacity="0.0"
     inkscape:pageshadow="2"
     inkscape:zoom="0.7"
     inkscape:cx="223.88732"
     inkscape:cy="348.14664"
     inkscape:document-units="px"
     inkscape:current-layer="layer1"
     showgrid="false"
     inkscape:window-width="1366"
     inkscape:window-height="721"
     inkscape:window-x="0"
     inkscape:window-y="23"
     inkscape:window-maximized="1" />
  <metadata
     id="metadata7">
    <rdf:RDF>
      <cc:Work
         rdf:about="">
        <dc:format>image/svg+xml</dc:format>
        <dc:type
           rdf:resource="http://purl.org/dc/dcmitype/StillImage" />
        <dc:title></dc:title>
      </cc:Work>
    </rdf:RDF>
  </metadata>
  <g
     inkscape:label="Layer 1"
     inkscape:groupmode="layer"
     id="layer1">
    <g
       id="g4185"
       transform="translate(-17.172593,-193.94929)">
      <path
         sodipodi:nodetypes="cccccc"
         inkscape:connector-curvature="0"
         id="path4144"
         d="m 293.95438,205.46472 10.06041,13.95241 -20.78243,20.78243 -172.62066,0 31.76209,-31.76209 z"
         style="fill:#502d16;fill-opacity:1;fill-rule:evenodd;stroke:none;stroke-width:1px;stroke-linecap:butt;stroke-linejoin:miter;stroke-opacity:1" />
      <path
         sodipodi:nodetypes="ccccc"
         inkscape:connector-curvature="0"
         id="path4140"
         d="m 89.903576,240.19956 c -2.0203,0 42.931474,-42.93148 42.931474,-42.93148 l 161.37188,7.95495 -29.54696,33.4613 z"
         style="fill:#c87137;fill-rule:evenodd;stroke:none;stroke-width:1px;stroke-linecap:butt;stroke-linejoin:miter;stroke-opacity:1" />
      <path
         sodipodi:nodetypes="cccccc"
         inkscape:connector-curvature="0"
         id="path4144-1"
         d="m 63.626559,448.3659 -10.06041,-13.95241 20.782434,-20.78243 172.620667,0 -31.76209,31.76209 z"
         style="fill:#502d16;fill-opacity:1;fill-rule:evenodd;stroke:none;stroke-width:1px;stroke-linecap:butt;stroke-linejoin:miter;stroke-opacity:1" />
      <path
         sodipodi:nodetypes="ccccc"
         inkscape:connector-curvature="0"
         id="path4140-3"
         d="m 267.67736,413.63106 c 2.0203,0 -42.93146,42.93148 -42.93146,42.93148 l -161.371891,-7.95495 29.546964,-33.4613 z"
         style="fill:#c87137;fill-rule:evenodd;stroke:none;stroke-width:1px;stroke-linecap:butt;stroke-linejoin:miter;stroke-opacity:1" />
      <rect
         y="238.65591"
         x="88.960114"
         height="180.92348"
         width="176.19218"
         id="rect4136"
         style="opacity:1;fill:#c87137;fill-opacity:1;stroke:none;stroke-opacity:1" />
    </g>
    <flowRoot
       xml:space="preserve"
       id="flowRoot4164"
       style="font-style:normal;font-weight:normal;font-size:41.40298843px;line-height:125%;font-family:Sans;letter-spacing:0px;word-spacing:0px;fill:#000000;fill-opacity:1;stroke:none;stroke-width:1px;stroke-linecap:butt;stroke-linejoin:miter;stroke-opacity:1"
       transform="matrix(5.3281355,0,0,5.3281355,-260.39478,-1361.5352)"><flowRegion
         id="flowRegion4166"><rect
           id="rect4168"
           width="554.15918"
           height="152.65517"
           x="48.394691"
           y="256.0864" /></flowRegion><flowPara
         style="font-style:normal;font-variant:normal;font-weight:300;font-stretch:normal;font-family:'BPG Nateli GPL&amp;GNU';-inkscape-font-specification:'BPG Nateli GPL&amp;GNU Light'"
         id="flowPara4225">SCROLL</flowPara></flowRoot>    <g
       id="g4319"
       transform="matrix(0.68238016,0,0,0.68238016,90.260159,187.31802)">
      <g
         transform="translate(338.0955,-517.72466)"
         id="g4253">
        <path
           style="fill:#502d16;fill-opacity:1;fill-rule:evenodd;stroke:none;stroke-width:1px;stroke-linecap:butt;stroke-linejoin:miter;stroke-opacity:1"
           d="m 256.56496,304.65765 10.06041,13.95241 -20.78243,20.78243 -172.620661,0 31.762091,-31.76209 z"
           id="path4144-4"
           inkscape:connector-curvature="0"
           sodipodi:nodetypes="cccccc" />
        <path
           style="fill:#c87137;fill-rule:evenodd;stroke:none;stroke-width:1px;stroke-linecap:butt;stroke-linejoin:miter;stroke-opacity:1"
           d="m 52.514159,339.39249 c -2.0203,0 42.93147,-42.93148 42.93147,-42.93148 l 161.371881,7.95495 -29.54696,33.4613 z"
           id="path4140-5"
           inkscape:connector-curvature="0"
           sodipodi:nodetypes="ccccc" />
        <path
           style="fill:#502d16;fill-opacity:1;fill-rule:evenodd;stroke:none;stroke-width:1px;stroke-linecap:butt;stroke-linejoin:miter;stroke-opacity:1"
           d="m 24.237139,551.55883 -10.06041,-13.95241 20.78244,-20.78243 172.620661,0 -31.76209,31.76209 z"
           id="path4144-1-8"
           inkscape:connector-curvature="0"
           sodipodi:nodetypes="cccccc" />
        <path
           style="fill:#c87137;fill-rule:evenodd;stroke:none;stroke-width:1px;stroke-linecap:butt;stroke-linejoin:miter;stroke-opacity:1"
           d="m 228.28794,516.82399 c 2.0203,0 -42.93146,42.93148 -42.93146,42.93148 l -161.371891,-7.95495 29.54697,-33.4613 z"
           id="path4140-3-8"
           inkscape:connector-curvature="0"
           sodipodi:nodetypes="ccccc" />
        <rect
           style="opacity:1;fill:#c87137;fill-opacity:1;stroke:none;stroke-opacity:1"
           id="rect4136-6"
           width="176.19218"
           height="183.78404"
           x="52.161869"
           y="336.83868" />
      </g>
    </g>
    <g
       id="g4494">
      <flowRoot
         transform="matrix(0.36141186,0,0,0.36141186,462.39834,478.17694)"
         style="font-style:normal;font-weight:normal;font-size:220.60073853px;line-height:125%;font-family:Sans;letter-spacing:0px;word-spacing:0px;fill:#000000;fill-opacity:1;stroke:none;stroke-width:1px;stroke-linecap:butt;stroke-linejoin:miter;stroke-opacity:1"
         id="flowRoot4164-5"
         xml:space="preserve"><flowRegion
           id="flowRegion4166-6"><rect
             y="-43.337986"
             x="-14.558796"
             height="813.36743"
             width="2952.6353"
             id="rect4168-9" /></flowRegion><flowPara
           id="flowPara4225-5"
           style="font-style:normal;font-variant:normal;font-weight:300;font-stretch:normal;font-family:'BPG Nateli GPL&amp;GNU';-inkscape-font-specification:'BPG Nateli GPL&amp;GNU Light'">EDITOR</flowPara></flowRoot>      <flowRoot
         transform="translate(54.518857,478.17818)"
         style="font-style:normal;font-weight:normal;font-size:79.72772217px;line-height:125%;font-family:Sans;letter-spacing:0px;word-spacing:0px;fill:#000000;fill-opacity:1;stroke:none;stroke-width:1px;stroke-linecap:butt;stroke-linejoin:miter;stroke-opacity:1"
         id="flowRoot4164-5-5"
         xml:space="preserve"><flowRegion
           id="flowRegion4166-6-1"><rect
             y="-15.663769"
             x="-6.9363852"
             height="293.96063"
             width="1067.1174"
             id="rect4168-9-3" /></flowRegion><flowPara
           id="flowPara4225-5-5"
           style="font-style:normal;font-variant:normal;font-weight:300;font-stretch:normal;font-family:'BPG Nateli GPL&amp;GNU';-inkscape-font-specification:'BPG Nateli GPL&amp;GNU Light'">SCROLL</flowPara></flowRoot>      <g
         transform="translate(-1.7241843,-74.751288)"
         id="g4455">
        <g
           transform="translate(2.9985352,4.4617309e-8)"
           id="g4484">
          <g
             id="g4479"
             transform="translate(-2.9985141,0)">
            <path
               sodipodi:nodetypes="cccccc"
               inkscape:connector-curvature="0"
               id="path4144-4-8"
               d="m 451.00409,497.56239 6.86502,9.52084 -14.18152,14.18152 -117.79291,0 21.67382,-21.67382 z"
               style="fill:#b71c1c;fill-opacity:1;fill-rule:evenodd;stroke:none;stroke-width:1px;stroke-linecap:butt;stroke-linejoin:miter;stroke-opacity:1" />
            <path
               sodipodi:nodetypes="cccccc"
               inkscape:connector-curvature="0"
               id="path4144-1-8-2"
               d="m 292.46819,666.04285 -6.86502,-9.52085 14.18152,-14.18151 117.79292,0 -21.67382,21.67382 z"
               style="fill:#b71c1c;fill-opacity:1;fill-rule:evenodd;stroke:none;stroke-width:1px;stroke-linecap:butt;stroke-linejoin:miter;stroke-opacity:1" />
            <path
               style="opacity:1;fill:#f44336;fill-opacity:1;stroke:none;stroke-opacity:1"
               d="m 347.04887,668.43546 c -24.44569,-1.26269 -46.41109,-2.45025 -48.81201,-2.63901 l -4.3653,-0.34321 9.16353,-10.31572 9.16352,-10.31569 0,-62.04986 0,-62.04985 7.82868,-7.48391 c 4.30578,-4.11615 11.03748,-10.52167 14.95934,-14.23448 l 7.13065,-6.75056 49.94297,2.47089 c 27.46863,1.35899 51.98224,2.59981 54.47468,2.75738 l 4.53171,0.28647 -8.81029,9.7449 c -4.84567,5.3597 -9.27142,10.95777 -9.83502,12.44013 -0.64755,1.70319 -1.06056,25.07253 -1.12208,63.49117 l -0.0974,60.79593 -14.19344,13.38451 -14.19344,13.38452 -5.65971,-0.1389 c -3.11283,-0.0764 -25.66072,-1.17202 -50.10641,-2.43471 z"
               id="path4361"
               inkscape:connector-curvature="0" />
          </g>
          <flowRoot
             xml:space="preserve"
             id="flowRoot4164-6"
             style="font-style:normal;font-weight:normal;font-size:220.60073853px;line-height:125%;font-family:Sans;letter-spacing:0px;word-spacing:0px;fill:#ffffff;fill-opacity:1;stroke:none;stroke-width:1px;stroke-linecap:butt;stroke-linejoin:miter;stroke-opacity:1"
             transform="matrix(0.68238016,0,0,0.68238016,339.15706,528.58856)"><flowRegion
               id="flowRegion4166-9"><rect
                 style="fill:#ffffff"
                 id="rect4168-6"
                 width="2952.6353"
                 height="813.36743"
                 x="-14.558795"
                 y="-43.337959" /></flowRegion><flowPara
               style="font-style:normal;font-variant:normal;font-weight:300;font-stretch:normal;font-family:'BPG Nateli GPL&amp;GNU';-inkscape-font-specification:'BPG Nateli GPL&amp;GNU Light';fill:#ffffff"
               id="flowPara4225-53">S</flowPara></flowRoot>        </g>
      </g>
    </g>
    <g
       transform="translate(26.35482,308.33952)"
       id="g4494-7"
       inkscape:export-filename="/home/michaelb/private/programming/js/le2/plugins/core/bootstrap/img/logo_2.png"
       inkscape:export-xdpi="98.192062"
       inkscape:export-ydpi="98.192062">
      <flowRoot
         transform="matrix(0.36141186,0,0,0.36141186,462.39834,478.17694)"
         style="font-style:normal;font-weight:normal;font-size:220.60073853px;line-height:125%;font-family:Sans;letter-spacing:0px;word-spacing:0px;fill:#000000;fill-opacity:1;stroke:none;stroke-width:1px;stroke-linecap:butt;stroke-linejoin:miter;stroke-opacity:1"
         id="flowRoot4164-5-4"
         xml:space="preserve"><flowRegion
           id="flowRegion4166-6-5"><rect
             y="-43.337986"
             x="-14.558796"
             height="813.36743"
             width="2952.6353"
             id="rect4168-9-9" /></flowRegion><flowPara
           id="flowPara4225-5-1"
           style="font-style:normal;font-variant:normal;font-weight:300;font-stretch:normal;font-family:'BPG Nateli GPL&amp;GNU';-inkscape-font-specification:'BPG Nateli GPL&amp;GNU Light'">EDITOR</flowPara></flowRoot>      <flowRoot
         transform="translate(54.518857,478.17818)"
         style="font-style:normal;font-weight:normal;font-size:79.72772217px;line-height:125%;font-family:Sans;letter-spacing:0px;word-spacing:0px;fill:#000000;fill-opacity:1;stroke:none;stroke-width:1px;stroke-linecap:butt;stroke-linejoin:miter;stroke-opacity:1"
         id="flowRoot4164-5-5-9"
         xml:space="preserve"><flowRegion
           id="flowRegion4166-6-1-0"><rect
             y="-15.663769"
             x="-6.9363852"
             height="293.96063"
             width="1067.1174"
             id="rect4168-9-3-0" /></flowRegion><flowPara
           id="flowPara4225-5-5-8"
           style="font-style:normal;font-variant:normal;font-weight:300;font-stretch:normal;font-family:'BPG Nateli GPL&amp;GNU';-inkscape-font-specification:'BPG Nateli GPL&amp;GNU Light'">SCROLL</flowPara></flowRoot>      <g
         id="g4479-2"
         transform="translate(-1.7241632,-74.751288)">
        <path
           sodipodi:nodetypes="cccccc"
           inkscape:connector-curvature="0"
           id="path4144-4-8-6"
           d="m 451.00409,497.56239 6.86502,9.52084 -14.18152,14.18152 -117.79291,0 21.67382,-21.67382 z"
           style="fill:#b71c1c;fill-opacity:1;fill-rule:evenodd;stroke:none;stroke-width:1px;stroke-linecap:butt;stroke-linejoin:miter;stroke-opacity:1" />
        <path
           sodipodi:nodetypes="cccccc"
           inkscape:connector-curvature="0"
           id="path4144-1-8-2-5"
           d="m 292.46819,666.04285 -6.86502,-9.52085 14.18152,-14.18151 117.79292,0 -21.67382,21.67382 z"
           style="fill:#b71c1c;fill-opacity:1;fill-rule:evenodd;stroke:none;stroke-width:1px;stroke-linecap:butt;stroke-linejoin:miter;stroke-opacity:1" />
        <path
           style="opacity:1;fill:#f44336;fill-opacity:1;stroke:none;stroke-opacity:1"
           d="M 366.74805 725.8418 L 359.61719 732.5918 C 355.69533 736.30461 348.96398 742.71002 344.6582 746.82617 L 336.83008 754.31055 L 336.83008 816.35938 L 336.83008 878.41016 L 327.66602 888.72656 L 318.50195 899.04102 L 322.86719 899.38477 C 325.26811 899.57353 347.234 900.76075 371.67969 902.02344 C 396.12538 903.28613 418.67233 904.38258 421.78516 904.45898 L 427.44531 904.59766 L 441.63867 891.21289 L 455.83203 877.82812 L 455.92969 817.0332 C 455.99121 778.61456 456.40518 755.24421 457.05273 753.54102 C 457.61633 752.05866 462.04105 746.46126 466.88672 741.10156 L 475.69727 731.35547 L 471.16602 731.07031 C 468.67358 730.91274 444.16004 729.67149 416.69141 728.3125 L 366.74805 725.8418 z M 398.09766 762.17773 C 403.61722 762.17773 408.08205 762.88018 411.49414 764.28516 C 415.00659 765.69014 417.76632 767.59732 419.77344 770.00586 C 421.88091 772.31404 423.33583 775.07377 424.13867 778.28516 C 424.94152 781.39618 425.39378 784.70825 425.49414 788.2207 L 418.41992 788.2207 C 418.21921 785.00932 417.76694 782.09753 417.06445 779.48828 C 416.46232 776.77868 415.35764 774.52125 413.75195 772.71484 C 412.24662 770.80809 410.13929 769.35317 407.42969 768.34961 C 404.72008 767.34605 401.35798 766.84375 397.34375 766.84375 C 390.51956 766.84375 385.15215 768.1986 381.23828 770.9082 C 377.42476 773.51745 375.51758 778.33448 375.51758 785.35938 C 375.51758 788.77147 375.81779 791.58124 376.41992 793.78906 C 377.02206 795.89653 377.92464 797.75368 379.12891 799.35938 C 380.43353 800.86471 381.99047 802.21956 383.79688 803.42383 C 385.60328 804.6281 387.61053 805.83284 389.81836 807.03711 L 389.81836 806.88672 L 397.79688 811.70312 C 401.20897 814.01131 404.62111 816.0686 408.0332 817.875 C 411.4453 819.58105 414.4552 821.53827 417.06445 823.74609 C 419.6737 825.95392 421.78103 828.61358 423.38672 831.72461 C 425.09277 834.83564 425.94531 838.75008 425.94531 843.4668 C 425.94531 861.53083 416.16116 870.5625 396.5918 870.5625 C 386.35551 870.5625 378.82879 868.05294 374.01172 863.03516 C 369.19464 857.91701 366.78516 850.69246 366.78516 841.35938 L 374.01172 841.35938 C 374.01172 844.57076 374.26189 847.6307 374.76367 850.54102 C 375.26545 853.35098 376.27005 855.91057 377.77539 858.21875 C 379.28073 860.42658 381.53816 862.1817 384.54883 863.48633 C 387.65986 864.79095 391.92454 865.44336 397.34375 865.44336 C 404.56936 865.44336 409.93872 863.73827 413.45117 860.32617 C 417.06398 856.81372 418.87109 851.69454 418.87109 844.9707 C 418.87109 841.55861 418.36879 838.64877 417.36523 836.24023 C 416.36168 833.73134 414.85672 831.52395 412.84961 829.61719 C 410.8425 827.61007 408.43301 825.80296 405.62305 824.19727 C 402.81309 822.59157 399.65307 820.68439 396.14062 818.47656 L 391.02148 815.4668 C 386.20441 812.55648 382.34196 809.89682 379.43164 807.48828 C 376.52132 804.97939 374.26194 802.62189 372.65625 800.41406 C 371.05056 798.10588 369.94784 795.89653 369.3457 793.78906 C 368.84392 791.58124 368.5918 789.27377 368.5918 786.86523 C 368.5918 778.13429 371.20142 771.86235 376.41992 768.04883 C 381.73877 764.13496 388.96529 762.17773 398.09766 762.17773 z "
           transform="translate(-24.630657,-233.58823)"
           id="path4361-8" />
      </g>
    </g>
    <flowRoot
       xml:space="preserve"
       id="flowRoot4610"
       style="font-style:normal;font-weight:normal;font-size:40px;line-height:125%;font-family:Sans;letter-spacing:0px;word-spacing:0px;fill:#000000;fill-opacity:1;stroke:none;stroke-width:1px;stroke-linecap:butt;stroke-linejoin:miter;stroke-opacity:1"
       transform="translate(-108.57143,35.714286)"><flowRegion
         id="flowRegion4612"><rect
           id="rect4614"
           width="468.57144"
           height="94.28569"
           x="-222.85715"
           y="438.07648" /></flowRegion><flowPara
         id="flowPara4616">nontransparent</flowPara></flowRoot>    <flowRoot
       xml:space="preserve"
       id="flowRoot4610-9"
       style="font-style:normal;font-weight:normal;font-size:40px;line-height:125%;font-family:Sans;letter-spacing:0px;word-spacing:0px;fill:#000000;fill-opacity:1;stroke:none;stroke-width:1px;stroke-linecap:butt;stroke-linejoin:miter;stroke-opacity:1"
       transform="translate(-111.76869,345.72745)"><flowRegion
         id="flowRegion4612-3"><rect
           id="rect4614-9"
           width="468.57144"
           height="94.28569"
           x="-222.85715"
           y="438.07648" /></flowRegion><flowPara
         id="flowPara4616-9">transparent</flowPara></flowRoot>  </g>
</svg>
